{
  "Setting": {
    "DefaultViewer": "nsxiv",
    "DictionaryClient": "auto",
    "ShowProgressIndicator": true,
    "PageScrollAnimation": true,
    "MouseSupport": false,
    "StartWithDoubleSpread": false,
    "DefaultColorFG": -1,
    "DefaultColorBG": -1,
    "DarkColorFG": 252,
    "DarkColorBG": 235,
    "LightColorFG": 238,
    "LightColorBG": 253,
    "SeamlessBetweenChapters": false,
    "PreferredTTSEngine": null,
    "TTSEngineArgs": []
  },
  "Keymap": {
    "ScrollUp": "k",
    "ScrollDown": "j",
    "PageUp": "h",
    "PageDown": "l",
    "NextChapter": "L",
    "PrevChapter": "H",
    "BeginningOfCh": "g",
    "EndOfCh": "G",
    "Shrink": "-",
    "Enlarge": "+",
    "SetWidth": "=",
    "Metadata": "M",
    "DefineWord": "d",
    "TableOfContents": "t",
    "Follow": "f",
    "OpenImage": "o",
    "RegexSearch": "/",
    "ShowHideProgress": "s",
    "MarkPosition": "m",
    "JumpToPosition": "`",
    "AddBookmark": "b",
    "ShowBookmarks": "B",
    "Quit": "q",
    "Help": "?",
    "SwitchColor": "c",
    "TTSToggle": "!",
    "DoubleSpreadToggle": "D",
    "Library": "R"
  }
}
